<?xml version="1.0" encoding="UTF-8"?>
<session version="1.0">
<refactoring accessors="true" comment="Delete element from project &apos;day_05&apos;&#x0D;&#x0A;- Original project: &apos;day_05&apos;&#x0D;&#x0A;- Original element: &apos;cn.tzp.servlet.AServlet.java&apos;" description="Delete element" element1="/src&lt;cn.tzp.servlet{AServlet.java" elements="1" flags="589830" id="org.eclipse.jdt.ui.delete" resources="0" stamp="1507992964680" subPackages="false" version="1.0"/>
</session>