Wed Nov 01 08:45:45 CST 2017  [debug] AvalonLogSystem initialized using logfile 'D:\myeclipse\Workspaces2\.metadata\.plugins\com.genuitec.eclipse.templates\velocity.log'
Wed Nov 01 08:45:45 CST 2017   [info] ************************************************************** 
Wed Nov 01 08:45:45 CST 2017   [info] Starting Jakarta Velocity v1.4
Wed Nov 01 08:45:45 CST 2017   [info] RuntimeInstance initializing.
Wed Nov 01 08:45:45 CST 2017   [info] Default Properties File: org\apache\velocity\runtime\defaults\velocity.properties
Wed Nov 01 08:45:45 CST 2017   [info] Trying to use logger class org.apache.velocity.runtime.log.AvalonLogSystem
Wed Nov 01 08:45:45 CST 2017   [info] Using logger class org.apache.velocity.runtime.log.AvalonLogSystem
Wed Nov 01 08:45:45 CST 2017   [info] Default ResourceManager initializing. (class org.apache.velocity.runtime.resource.ResourceManagerImpl)
Wed Nov 01 08:45:45 CST 2017   [info] Resource Loader Instantiated: com.genuitec.eclipse.templates.internal.PluginResourceLoader
Wed Nov 01 08:45:45 CST 2017   [info] ResourceCache : initialized. (class org.apache.velocity.runtime.resource.ResourceCacheImpl)
Wed Nov 01 08:45:45 CST 2017   [info] Default ResourceManager initialization complete.
Wed Nov 01 08:45:45 CST 2017   [info] Loaded System Directive: org.apache.velocity.runtime.directive.Literal
Wed Nov 01 08:45:45 CST 2017   [info] Loaded System Directive: org.apache.velocity.runtime.directive.Macro
Wed Nov 01 08:45:45 CST 2017   [info] Loaded System Directive: org.apache.velocity.runtime.directive.Parse
Wed Nov 01 08:45:45 CST 2017   [info] Loaded System Directive: org.apache.velocity.runtime.directive.Include
Wed Nov 01 08:45:45 CST 2017   [info] Loaded System Directive: org.apache.velocity.runtime.directive.Foreach
Wed Nov 01 08:45:45 CST 2017   [info] Created: 20 parsers.
Wed Nov 01 08:45:46 CST 2017   [info] Velocimacro : initialization starting.
Wed Nov 01 08:45:46 CST 2017   [info] Velocimacro : adding VMs from VM library template : VM_global_library.vm
Wed Nov 01 08:45:46 CST 2017   [info] ResourceManager : found VM_global_library.vm with loader com.genuitec.eclipse.templates.internal.PluginResourceLoader
Wed Nov 01 08:45:46 CST 2017   [info] Velocimacro :  VM library template macro registration complete.
Wed Nov 01 08:45:46 CST 2017   [info] Velocimacro : allowInline = true : VMs can be defined inline in templates
Wed Nov 01 08:45:46 CST 2017   [info] Velocimacro : allowInlineToOverride = true : VMs defined inline may replace previous VM definitions
Wed Nov 01 08:45:46 CST 2017   [info] Velocimacro : allowInlineLocal = true : VMs defined inline will be local to their defining template only.
Wed Nov 01 08:45:46 CST 2017   [info] Velocimacro : messages on  : VM system will output logging messages
Wed Nov 01 08:45:46 CST 2017   [info] Velocimacro : autoload off  : VM system will not automatically reload global library macros
Wed Nov 01 08:45:46 CST 2017   [info] Velocimacro : initialization complete.
Wed Nov 01 08:45:46 CST 2017   [info] Velocity successfully started.
Wed Nov 01 08:45:46 CST 2017   [info] ResourceManager : found /templates/velocity/welcome/Jsp.vtl with loader com.genuitec.eclipse.templates.internal.PluginResourceLoader
