<?xml version="1.0" encoding="UTF-8"?>
<session version="1.0">
<refactoring comment="Rename package &apos;cn.tzp.web.AFilter&apos; to &apos;cn.tzp.web.filter&apos;&#x0D;&#x0A;- Original project: &apos;day_11_id&apos;&#x0D;&#x0A;- Original element: &apos;day_11_id/src/cn.tzp.web.AFilter&apos;&#x0D;&#x0A;- Renamed element: &apos;day_11_id/src/cn.tzp.web.filter&apos;&#x0D;&#x0A;- Update references to refactored element&#x0D;&#x0A;- Update textual occurrences in comments and strings" description="Rename package &apos;cn.tzp.web.AFilter&apos;" flags="589830" hierarchical="false" id="org.eclipse.jdt.ui.rename.package" input="/src&lt;cn.tzp.web.AFilter" name="cn.tzp.web.filter" qualified="false" references="true" stamp="1508657508183" textual="false" version="1.0"/>
</session>