<?xml version="1.0" encoding="UTF-8"?>
<session version="1.0">
<refactoring comment="Delete resource &apos;day_15&apos;" deleteContents="true" description="Delete resource &apos;day_15&apos;" element1="/day_15" flags="7" id="org.eclipse.ltk.core.refactoring.delete.resources" resources="1" stamp="1509238008292"/>
</session>